March 10th, 2016 (16:51)	54 fiction 	12 history	10 novel	76 quantity	1080
March 10th, 2016 (17:05)	54 fiction 	12 history	10 novel	76 quantity	1080
March 10th, 2016 (17:10)	20 fiction 	10 history	5 novel	35 quantity	550
March 10th, 2016 (17:10)	41 fiction 	23 history	18 novel	82 quantity	1410
March 10th, 2016 (17:11)	100 fiction 	25 history	69 novel	194 quantity	3570
